Solutions | Continuing education: R
…
Task 7

Create a new variable in which you store the mass in gram. Add it to the
data frame.

Solution:

starwars_data <- starwars_data %>%
  mutate(gr_mass = mass * 1000)

starwars_data %>%
  select(name, species, mass, gr_mass)

## # A tibble: 87 × 4
##    name               species  mass gr_mass
##    <chr>              <chr>   <dbl>   <dbl>
##  1 Luke Skywalker     Human      77   77000
##  2 C-3PO              Droid      75   75000
##  3 R2-D2              Droid      32   32000
##  4 Darth Vader        Human     136  136000
##  5 Leia Organa        Human      49   49000
##  6 Owen Lars          Human     120  120000
##  7 Beru Whitesun lars Human      75   75000
##  8 R5-D4              Droid      32   32000
##  9 Biggs Darklighter  Human      84   84000
## 10 Obi-Wan Kenobi     Human      77   77000
## # ℹ 77 more rows
…
Why would we use data %>% filter(wt < 1.4613636 | wt > 1.5636364)
instead of data %>% filter(wt > 1.4613636 | wt < 1.5636364)?

Let’s look at the resulting data sets when you apply those filters to
compare them:

data %>%
  select(wt) %>%
  filter(wt < 1.4613636 | wt > 1.5636364)

## # A tibble: 24 × 1
##       wt
##    <dbl>
##  1  1.19
##  2  1.31
##  3  1.57
##  4  1.62
##  5  1.45
##  6  1.70
##  7  1.72
##  8  2.39
##  9  2.47
## 10  2.43
## # ℹ 14 more rows

The resulting table does not include any cars that weigh between
1.4613636 and 1.5636364. But if you use
data %>% filter(wt > 1.4613636 | wt < 1.5636364)…

data %>%
  select(wt) %>%
  filter(wt > 1.4613636 | wt < 1.5636364)

## # A tibble: 29 × 1
##       wt
##    <dbl>
##  1  1.19
##  2  1.31
##  3  1.46
##  4  1.56
##  5  1.57
##  6  1.62
##  7  1.45
##  8  1.56
##  9  1.56
## 10  1.70
## # ℹ 19 more rows
…
