6 5 Tutorial: Advanced data management | Continuing education: R
…
6.4.1 inner_join

This is like an overly correct librarian. It only takes rows that
have matching keys in both datasets, otherwise it will drop the
rows.

inner_joined <- inner_join(rookies, veterans, by = "case_id")

inner_joined

## # A tibble: 117 × 31
##    country.x   reach.x       employment.x temp_contract.x autonomy_selection.x
##    <fct>       <fct>         <chr>        <fct>                          <dbl>
##  1 Germany     National      Full-time    Permanent                          5
##  2 Denmark     National      Full-time    Permanent                          3
##  3 UK          Regional      Full-time    Permanent                          3
##  4 UK          Transnational Full-time    Permanent                          4
##  5 UK          Regional      Full-time    Permanent                          4
##  6 Germany     Local         Full-time    Permanent                          4
##  7 UK          Regional      Full-time    Permanent                          4
##  8 Switzerland Regional      Freelancer   <NA>                               2
##  9 Denmark     Regional      Full-time    Temporary                          3
## 10 Austria     National      Full-time    Permanent                          3
## # ℹ 107 more rows
## # ℹ 26 more variables: autonomy_emphasis.x <dbl>, ethics_1.x <dbl>,
## #   ethics_2.x <dbl>, ethics_3.x <dbl>, ethics_4.x <dbl>,
## #   work_experience.x <dbl>, trust_parliament.x <dbl>,
## #   trust_government.x <dbl>, trust_parties.x <dbl>, trust_politicians.x <dbl>,
## #   case_id <int>, country.y <fct>, reach.y <fct>, employment.y <chr>,
## #   temp_contract.y <fct>, autonomy_selection.y <dbl>, …

6.4.2 left_join

This is like a fan of the first dataset. It takes all rows from the
first dataset and the matched rows from the second dataset.

left_joined <- left_join(rookies, veterans, by = "case_id")

left_joined

## # A tibble: 433 × 31
##    country.x   reach.x       employment.x temp_contract.x autonomy_selection.x
##    <fct>       <fct>         <chr>        <fct>                          <dbl>
##  1 Germany     National      Full-time    Permanent                          5
##  2 Germany     National      Full-time    Permanent                          3
##  3 Switzerland Regional      Full-time    Permanent                          4
##  4 Switzerland Local         Part-time    Permanent                          4
##  5 Denmark     National      Full-time    Permanent                          3
##  6 Denmark     National      Full-time    Permanent                          2
##  7 Austria     Local         Full-time    Permanent                          5
##  8 UK          Regional      Full-time    Permanent                          3
##  9 UK          Transnational Full-time    Permanent                          4
## 10 UK          Transnational Full-time    Permanent                          4
## # ℹ 423 more rows
## # ℹ 26 more variables: autonomy_emphasis.x <dbl>, ethics_1.x <dbl>,
## #   ethics_2.x <dbl>, ethics_3.x <dbl>, ethics_4.x <dbl>,
## #   work_experience.x <dbl>, trust_parliament.x <dbl>,
## #   trust_government.x <dbl>, trust_parties.x <dbl>, trust_politicians.x <dbl>,
## #   case_id <int>, country.y <fct>, reach.y <fct>, employment.y <chr>,
## #   temp_contract.y <fct>, autonomy_selection.y <dbl>, …

6.4.3 right_join

This is like a fan of the second dataset. It takes all rows from the
second dataset and the matched rows from the first dataset.

right_joined <- right_join(rookies, veterans, by = "case_id")
# Pro tip: you can use the argument `by = your_column_here` to match the two datsets based on a specific column, e.g. case id

right_joined

## # A tibble: 853 × 31
##    country.x   reach.x       employment.x temp_contract.x autonomy_selection.x
##    <fct>       <fct>         <chr>        <fct>                          <dbl>
##  1 Germany     National      Full-time    Permanent                          5
##  2 Denmark     National      Full-time    Permanent                          3
##  3 UK          Regional      Full-time    Permanent                          3
##  4 UK          Transnational Full-time    Permanent                          4
##  5 UK          Regional      Full-time    Permanent                          4
##  6 Germany     Local         Full-time    Permanent                          4
##  7 UK          Regional      Full-time    Permanent                          4
##  8 Switzerland Regional      Freelancer   <NA>                               2
##  9 Denmark     Regional      Full-time    Temporary                          3
## 10 Austria     National      Full-time    Permanent                          3
## # ℹ 843 more rows
## # ℹ 26 more variables: autonomy_emphasis.x <dbl>, ethics_1.x <dbl>,
## #   ethics_2.x <dbl>, ethics_3.x <dbl>, ethics_4.x <dbl>,
## #   work_experience.x <dbl>, trust_parliament.x <dbl>,
## #   trust_government.x <dbl>, trust_parties.x <dbl>, trust_politicians.x <dbl>,
## #   case_id <int>, country.y <fct>, reach.y <fct>, employment.y <chr>,
## #   temp_contract.y <fct>, autonomy_selection.y <dbl>, …

6.4.4 full_join

This is like a hoarder. It takes all rows and throws in missings for
variables that are not part of both datasets.

full_joined <- full_join(rookies, veterans, by = "case_id")
# Pro tip: you can use the argument `by = your_column_here` to match the two datsets based on a specific column, e.g. case id

full_joined

## # A tibble: 1,169 × 31
##    country.x   reach.x       employment.x temp_contract.x autonomy_selection.x
##    <fct>       <fct>         <chr>        <fct>                          <dbl>
##  1 Germany     National      Full-time    Permanent                          5
##  2 Germany     National      Full-time    Permanent                          3
##  3 Switzerland Regional      Full-time    Permanent                          4
##  4 Switzerland Local         Part-time    Permanent                          4
##  5 Denmark     National      Full-time    Permanent                          3
##  6 Denmark     National      Full-time    Permanent                          2
##  7 Austria     Local         Full-time    Permanent                          5
##  8 UK          Regional      Full-time    Permanent                          3
##  9 UK          Transnational Full-time    Permanent                          4
## 10 UK          Transnational Full-time    Permanent                          4
## # ℹ 1,159 more rows
## # ℹ 26 more variables: autonomy_emphasis.x <dbl>, ethics_1.x <dbl>,
## #   ethics_2.x <dbl>, ethics_3.x <dbl>, ethics_4.x <dbl>,
## #   work_experience.x <dbl>, trust_parliament.x <dbl>,
## #   trust_government.x <dbl>, trust_parties.x <dbl>, trust_politicians.x <dbl>,
## #   case_id <int>, country.y <fct>, reach.y <fct>, employment.y <chr>,
## #   temp_contract.y <fct>, autonomy_selection.y <dbl>, …
…
Let’s say you want to analyze how work experience and autonomy selection
change over time. For this, you need to reshape the dataset into a
longer format.

long_data <- WoJ_panel %>%
  pivot_longer(
    cols = contains("_w"),
    names_to = c("variable", "wave"),
    names_pattern = "(.*)_(w\\d+)", # the symbol starts with any symbol that repeats 0 to several times until a _ is reached, followed by at least one digit
    values_to = "value"
  )

long_data

## # A tibble: 40 × 4
##    case_id variable           wave  value
##      <int> <chr>              <chr> <dbl>
##  1     415 work_experience    w2018    23
##  2     415 work_experience    w2019    22
##  3     415 autonomy_selection w2018     3
##  4     415 autonomy_selection w2019     4
##  5     463 work_experience    w2018     6
##  6     463 work_experience    w2019     5
##  7     463 autonomy_selection w2018     4
##  8     463 autonomy_selection w2019     4
##  9     179 work_experience    w2018    25
## 10     179 work_experience    w2019    23
## # ℹ 30 more rows
…
Let’s first import the full Worlds of Journalism dataset from the
tidycomm package:

data <- tidycomm::WoJ

6.6.1 Selecting the last column

Use last_col() when you want to select the last column of a data frame
regardless of its name.

data %>% select(last_col())

## # A tibble: 1,200 × 1
##    trust_politicians
##                <dbl>
##  1                 3
##  2                 3
##  3                 3
##  4                 3
##  5                 2
##  6                 2
##  7                 2
##  8                 3
##  9                 1
## 10                 3
## # ℹ 1,190 more rows

You can also select all columns except the last one:

data %>% select(!last_col())

## # A tibble: 1,200 × 14
##    country   reach employment temp_contract autonomy_selection autonomy_emphasis
##    <fct>     <fct> <chr>      <fct>                      <dbl>             <dbl>
##  1 Germany   Nati… Full-time  Permanent                      5                 4
##  2 Germany   Nati… Full-time  Permanent                      3                 4
##  3 Switzerl… Regi… Full-time  Permanent                      4                 4
##  4 Switzerl… Local Part-time  Permanent                      4                 5
##  5 Austria   Nati… Part-time  Permanent                      4                 4
##  6 Switzerl… Local Freelancer <NA>                           4                 4
##  7 Germany   Local Full-time  Permanent                      4                 4
##  8 Denmark   Nati… Full-time  Permanent                      3                 3
##  9 Switzerl… Local Full-time  Permanent                      5                 5
## 10 Denmark   Nati… Full-time  Permanent                      2                 4
## # ℹ 1,190 more rows
## # ℹ 8 more variables: ethics_1 <dbl>, ethics_2 <dbl>, ethics_3 <dbl>,
## #   ethics_4 <dbl>, work_experience <dbl>, trust_parliament <dbl>,
## #   trust_government <dbl>, trust_parties <dbl>

6.6.2 Selecting columns that start with, end with or contain a specific string

starts_with() selects columns that start with a specific prefix:

data %>% select(starts_with("ethics"))

## # A tibble: 1,200 × 4
##    ethics_1 ethics_2 ethics_3 ethics_4
##       <dbl>    <dbl>    <dbl>    <dbl>
##  1        2        3        2        1
##  2        1        2        2        1
##  3        2        4        2        1
##  4        1        3        1        2
##  5        2        3        2        1
##  6        2        4        4        3
##  7        1        3        2        2
##  8        2        4        4        4
##  9        1        2        1        3
## 10        1        4        4        4
## # ℹ 1,190 more rows

ends_with() selects columns that end with onre or more specific
suffixes:

data %>% select(ends_with(c("_1", "_2"))) # ends with _1 OR _2

## # A tibble: 1,200 × 2
##    ethics_1 ethics_2
##       <dbl>    <dbl>
##  1        2        3
##  2        1        2
##  3        2        4
##  4        1        3
##  5        2        3
##  6        2        4
##  7        1        3
##  8        2        4
##  9        1        2
## 10        1        4
## # ℹ 1,190 more rows

contains() selects columns that contain a specific substring:

data %>% select(contains("_"))

## # A tibble: 1,200 × 12
##    temp_contract autonomy_selection autonomy_emphasis ethics_1 ethics_2 ethics_3
##    <fct>                      <dbl>             <dbl>    <dbl>    <dbl>    <dbl>
##  1 Permanent                      5                 4        2        3        2
##  2 Permanent                      3                 4        1        2        2
##  3 Permanent                      4                 4        2        4        2
##  4 Permanent                      4                 5        1        3        1
##  5 Permanent                      4                 4        2        3        2
##  6 <NA>                           4                 4        2        4        4
##  7 Permanent                      4                 4        1        3        2
##  8 Permanent                      3                 3        2        4        4
##  9 Permanent                      5                 5        1        2        1
## 10 Permanent                      2                 4        1        4        4
## # ℹ 1,190 more rows
## # ℹ 6 more variables: ethics_4 <dbl>, work_experience <dbl>,
## #   trust_parliament <dbl>, trust_government <dbl>, trust_parties <dbl>,
## #   trust_politicians <dbl>

matches() selects columns based on a regular expression pattern:

data %>% select(matches("^ethics")) # ^ stands for "begins with" in regex notation

## # A tibble: 1,200 × 4
##    ethics_1 ethics_2 ethics_3 ethics_4
##       <dbl>    <dbl>    <dbl>    <dbl>
##  1        2        3        2        1
##  2        1        2        2        1
##  3        2        4        2        1
##  4        1        3        1        2
##  5        2        3        2        1
##  6        2        4        4        3
##  7        1        3        2        2
##  8        2        4        4        4
##  9        1        2        1        3
## 10        1        4        4        4
## # ℹ 1,190 more rows

data %>% select(matches("\\d")) # \\d stands for "contains a digit/number"

## # A tibble: 1,200 × 4
##    ethics_1 ethics_2 ethics_3 ethics_4
##       <dbl>    <dbl>    <dbl>    <dbl>
##  1        2        3        2        1
##  2        1        2        2        1
##  3        2        4        2        1
##  4        1        3        1        2
##  5        2        3        2        1
##  6        2        4        4        3
##  7        1        3        2        2
##  8        2        4        4        4
##  9        1        2        1        3
## 10        1        4        4        4
## # ℹ 1,190 more rows
…
data %>% select(starts_with("Ethics", ignore.case = FALSE)) # but there is not capitalized Ethics in the data

## # A tibble: 1,200 × 0

6.6.3 Selecting columns based on a numeric range

You can selects columns based on a numerical range with num_range():

data %>% select(num_range("ethics_", 1:2)) # selects ethics_1 and ethics2, but not ethics_3, etc.

## # A tibble: 1,200 × 2
##    ethics_1 ethics_2
##       <dbl>    <dbl>
##  1        2        3
##  2        1        2
##  3        2        4
##  4        1        3
##  5        2        3
##  6        2        4
##  7        1        3
##  8        2        4
##  9        1        2
## 10        1        4
## # ℹ 1,190 more rows

6.6.4 Selecting columns based on their type

You can selects columns based on their type with where(), e.g., all
character columns:

data %>% select(where(is.character))

## # A tibble: 1,200 × 1
##    employment
##    <chr>     
##  1 Full-time 
##  2 Full-time 
##  3 Full-time 
##  4 Part-time 
##  5 Part-time 
##  6 Freelancer
##  7 Full-time 
##  8 Full-time 
##  9 Full-time 
## 10 Full-time 
## # ℹ 1,190 more rows

Or you could select all columns that contain numbers:

data %>% select(where(is.numeric))

## # A tibble: 1,200 × 11
##    autonomy_selection autonomy_emphasis ethics_1 ethics_2 ethics_3 ethics_4
##                 <dbl>             <dbl>    <dbl>    <dbl>    <dbl>    <dbl>
##  1                  5                 4        2        3        2        1
##  2                  3                 4        1        2        2        1
##  3                  4                 4        2        4        2        1
##  4                  4                 5        1        3        1        2
##  5                  4                 4        2        3        2        1
##  6                  4                 4        2        4        4        3
##  7                  4                 4        1        3        2        2
##  8                  3                 3        2        4        4        4
##  9                  5                 5        1        2        1        3
## 10                  2                 4        1        4        4        4
## # ℹ 1,190 more rows
## # ℹ 5 more variables: work_experience <dbl>, trust_parliament <dbl>,
## #   trust_government <dbl>, trust_parties <dbl>, trust_politicians <dbl>

You could also use: 1) is.integer (whole numbers, e.g., 7) 2) is.double
(decimal numbers, e.g., 7.25) 3) is.logical (e.g., TRUE/FALSE) 4)
is.factor (e.g., “great”, “greater”, “the greatest”)

6.6.5 Combine selectors

You can combine selectors, of course. Let’s select all character columns
and columns that start with “autonomy”.

data %>% select(where(is.character) | starts_with("autonomy"))

## # A tibble: 1,200 × 3
##    employment autonomy_selection autonomy_emphasis
##    <chr>                   <dbl>             <dbl>
##  1 Full-time                   5                 4
##  2 Full-time                   3                 4
##  3 Full-time                   4                 4
##  4 Part-time                   4                 5
##  5 Part-time                   4                 4
##  6 Freelancer                  4                 4
##  7 Full-time                   4                 4
##  8 Full-time                   3                 3
##  9 Full-time                   5                 5
## 10 Full-time                   2                 4
## # ℹ 1,190 more rows

6.6.6 Reorder your columns with everything()

Finally, you can select all columns with everything(). This allows
you to reorder your columns quickly:

data %>% select(temp_contract, country, everything())

## # A tibble: 1,200 × 15
##    temp_contract country   reach employment autonomy_selection autonomy_emphasis
##    <fct>         <fct>     <fct> <chr>                   <dbl>             <dbl>
##  1 Permanent     Germany   Nati… Full-time                   5                 4
##  2 Permanent     Germany   Nati… Full-time                   3                 4
##  3 Permanent     Switzerl… Regi… Full-time                   4                 4
##  4 Permanent     Switzerl… Local Part-time                   4                 5
##  5 Permanent     Austria   Nati… Part-time                   4                 4
##  6 <NA>          Switzerl… Local Freelancer                  4                 4
##  7 Permanent     Germany   Local Full-time                   4                 4
##  8 Permanent     Denmark   Nati… Full-time                   3                 3
##  9 Permanent     Switzerl… Local Full-time                   5                 5
## 10 Permanent     Denmark   Nati… Full-time                   2                 4
## # ℹ 1,190 more rows
## # ℹ 9 more variables: ethics_1 <dbl>, ethics_2 <dbl>, ethics_3 <dbl>,
## #   ethics_4 <dbl>, work_experience <dbl>, trust_parliament <dbl>,
## #   trust_government <dbl>, trust_parties <dbl>, trust_politicians <dbl>
…
