8 Tutorial: Data analysis with tidycomm | Continuing education: R
…
get_reliability()

8.3.1.1 7.3.1.1 add_index():

The add_index() function adds a mean or sum index of the specified
variables to the data. The second argument (or first, if used in a pipe)
is the name of the index variable to be created. For example, if you
want to create a mean index named ‘ethical_concerns’ using variables
‘ethics_1’ to ‘ethics_4’, you can use the following code:

WoJ %>%
  add_index(ethical_concerns, ethics_1, ethics_2, ethics_3, ethics_4)

## # A tibble: 1,200 × 16
##    country   reach employment temp_contract autonomy_selection autonomy_emphasis
##  * <fct>     <fct> <chr>      <fct>                      <dbl>             <dbl>
##  1 Germany   Nati… Full-time  Permanent                      5                 4
##  2 Germany   Nati… Full-time  Permanent                      3                 4
##  3 Switzerl… Regi… Full-time  Permanent                      4                 4
##  4 Switzerl… Local Part-time  Permanent                      4                 5
##  5 Austria   Nati… Part-time  Permanent                      4                 4
##  6 Switzerl… Local Freelancer <NA>                           4                 4
##  7 Germany   Local Full-time  Permanent                      4                 4
##  8 Denmark   Nati… Full-time  Permanent                      3                 3
##  9 Switzerl… Local Full-time  Permanent                      5                 5
## 10 Denmark   Nati… Full-time  Permanent                      2                 4
## # ℹ 1,190 more rows
## # ℹ 10 more variables: ethics_1 <dbl>, ethics_2 <dbl>, ethics_3 <dbl>,
## #   ethics_4 <dbl>, work_experience <dbl>, trust_parliament <dbl>,
## #   trust_government <dbl>, trust_parties <dbl>, trust_politicians <dbl>,
## #   ethical_concerns <dbl>

To create a sum index instead, set type = "sum":

WoJ %>%
  add_index(ethical_flexibility, ethics_1, ethics_2, ethics_3, ethics_4, type = "sum")

## # A tibble: 1,200 × 16
##    country   reach employment temp_contract autonomy_selection autonomy_emphasis
##  * <fct>     <fct> <chr>      <fct>                      <dbl>             <dbl>
##  1 Germany   Nati… Full-time  Permanent                      5                 4
##  2 Germany   Nati… Full-time  Permanent                      3                 4
##  3 Switzerl… Regi… Full-time  Permanent                      4                 4
##  4 Switzerl… Local Part-time  Permanent                      4                 5
##  5 Austria   Nati… Part-time  Permanent                      4                 4
##  6 Switzerl… Local Freelancer <NA>                           4                 4
##  7 Germany   Local Full-time  Permanent                      4                 4
##  8 Denmark   Nati… Full-time  Permanent                      3                 3
##  9 Switzerl… Local Full-time  Permanent                      5                 5
## 10 Denmark   Nati… Full-time  Permanent                      2                 4
## # ℹ 1,190 more rows
## # ℹ 10 more variables: ethics_1 <dbl>, ethics_2 <dbl>, ethics_3 <dbl>,
## #   ethics_4 <dbl>, work_experience <dbl>, trust_parliament <dbl>,
## #   trust_government <dbl>, trust_parties <dbl>, trust_politicians <dbl>,
## #   ethical_flexibility <dbl>
…
WoJ %>% correlate(ethics_1, autonomy_selection, work_experience, partial = TRUE)

## # A tibble: 3 × 6
##   x               y                  z                        r    df          p
## * <chr>           <chr>              <chr>                <dbl> <dbl>      <dbl>
## 1 ethics_1        autonomy_selection work_experience    -0.0619  1181    3.32e-2
## 2 ethics_1        work_experience    autonomy_selection -0.0924  1181    1.46e-3
## 3 work_experience autonomy_selection ethics_1            0.154   1181    1.03e-7

And you can get the correlation for all suitable variables in your data
set:

WoJ %>% correlate()

## # A tibble: 66 × 5
##    x                  y                        r    df         p
##  * <chr>              <chr>                <dbl> <int>     <dbl>
##  1 autonomy_selection autonomy_emphasis  0.644    1192 4.83e-141
##  2 autonomy_selection ethics_1          -0.0766   1195 7.98e-  3
##  3 autonomy_selection ethics_2          -0.0274   1195 3.43e-  1
##  4 autonomy_selection ethics_3          -0.0257   1195 3.73e-  1
##  5 autonomy_selection ethics_4          -0.0781   1195 6.89e-  3
##  6 autonomy_selection work_experience    0.161    1182 2.71e-  8
##  7 autonomy_selection trust_parliament  -0.00840  1195 7.72e-  1
##  8 autonomy_selection trust_government   0.0414   1195 1.53e-  1
##  9 autonomy_selection trust_parties      0.0269   1195 3.52e-  1
## 10 autonomy_selection trust_politicians  0.0109   1195 7.07e-  1
## # ℹ 56 more rows
…
